<svg width="123" height="18" viewBox="0 0 123 18" fill="none" xmlns="http://www.w3.org/2000/svg">
<path d="M4.82419 18H4.53619C3.89619 18 3.36019 17.952 2.92819 17.856C2.51219 17.76 2.14419 17.568 1.82419 17.28C1.52019 16.976 1.28019 16.64 1.10419 16.272C0.944188 15.904 0.816188 15.352 0.720188 14.616C0.576188 13.512 0.504188 12.032 0.504188 10.176C0.504188 8.304 0.512188 6.984 0.528188 6.216C0.560188 5.448 0.624188 4.704 0.720188 3.984C0.816188 3.248 0.944188 2.704 1.10419 2.352C1.28019 1.984 1.52019 1.656 1.82419 1.368C2.14419 1.064 2.51219 0.872 2.92819 0.792C3.36019 0.695999 3.89619 0.647999 4.53619 0.647999H4.82419V18ZM5.78419 0.647999H8.83219C10.0002 0.647999 10.8802 0.847999 11.4722 1.248C12.0802 1.648 12.3842 2.344 12.3842 3.336V5.496C12.3842 5.832 12.2722 6 12.0482 6H9.02419C8.80019 6 8.66419 5.968 8.61619 5.904C8.56819 5.84 8.54419 5.704 8.54419 5.496V3.624C8.54419 3.368 8.50419 3.192 8.42419 3.096C8.36019 2.984 8.18419 2.928 7.89619 2.928H5.78419V0.647999ZM9.02419 12.648H12.0482C12.2722 12.648 12.3842 12.816 12.3842 13.152V15.312C12.3842 16.304 12.0802 17 11.4722 17.4C10.8802 17.8 10.0002 18 8.83219 18H5.78419V15.72H7.89619C8.18419 15.72 8.36019 15.672 8.42419 15.576C8.50419 15.464 8.54419 15.28 8.54419 15.024V13.152C8.54419 12.944 8.56819 12.808 8.61619 12.744C8.66419 12.68 8.80019 12.648 9.02419 12.648ZM15.0092 6.024H16.4732C17.1772 6.024 17.7052 6.2 18.0572 6.552C18.4252 6.888 18.6092 7.328 18.6092 7.872V18H15.8732C15.6172 18 15.4092 17.912 15.2492 17.736C15.0892 17.56 15.0092 17.328 15.0092 17.04V6.024ZM15.1772 0.912C15.3532 0.735999 15.8652 0.647999 16.7132 0.647999C17.5612 0.647999 18.0732 0.735999 18.2492 0.912C18.4252 1.072 18.5132 1.552 18.5132 2.352C18.5132 3.152 18.4172 3.64 18.2252 3.816C18.0492 3.992 17.5452 4.08 16.7132 4.08C15.8812 4.08 15.3692 3.992 15.1772 3.816C15.0012 3.64 14.9132 3.152 14.9132 2.352C14.9132 1.552 15.0012 1.072 15.1772 0.912ZM25.5608 6H28.9208C30.6648 6 31.5368 6.856 31.5368 8.568V18H28.8008C28.5448 18 28.3368 17.912 28.1768 17.736C28.0168 17.56 27.9368 17.328 27.9368 17.04V8.52C27.9368 8.264 27.8728 8.08 27.7448 7.968C27.6328 7.856 27.3688 7.8 26.9528 7.8H25.5608V6ZM21.3608 6H22.8248C23.5288 6 24.0568 6.176 24.4088 6.528C24.7768 6.864 24.9608 7.304 24.9608 7.848V18H22.2248C21.9688 18 21.7608 17.912 21.6008 17.736C21.4408 17.56 21.3608 17.328 21.3608 17.04V6ZM37.8268 18H37.7788C36.1948 18 35.2188 17.728 34.8508 17.184C34.6748 16.928 34.5308 16.68 34.4188 16.44C34.3228 16.2 34.2588 15.824 34.2268 15.312C34.1468 14.384 34.1068 13.352 34.1068 12.216C34.1068 11.08 34.1148 10.264 34.1308 9.768C34.1468 9.256 34.1948 8.744 34.2748 8.232C34.3708 7.704 34.4908 7.328 34.6348 7.104C34.7788 6.864 34.9948 6.648 35.2828 6.456C35.5708 6.264 35.9068 6.144 36.2908 6.096C36.6748 6.032 37.1708 6 37.7788 6H37.8268V18ZM44.2108 14.208V15.432C44.2108 17.144 43.3388 18 41.5948 18H38.5708V16.2H39.8668C40.2028 16.2 40.4108 16.152 40.4908 16.056C40.5708 15.944 40.6108 15.752 40.6108 15.48V14.712C40.6108 14.472 40.6348 14.336 40.6828 14.304C40.7468 14.272 40.7868 14.256 40.8028 14.256C40.8188 14.24 40.8588 14.232 40.9228 14.232C41.0028 14.216 41.0588 14.208 41.0908 14.208C42.1308 14.208 43.1708 14.208 44.2108 14.208ZM38.5708 6H41.3548C42.4588 6 43.2108 6.216 43.6108 6.648C44.0108 7.08 44.2108 7.72 44.2108 8.568V10.68C44.2108 12.12 43.4268 12.84 41.8588 12.84H38.3308V11.04H39.6268C40.0108 11.04 40.2668 10.992 40.3948 10.896C40.5388 10.8 40.6108 10.616 40.6108 10.344V8.52C40.6108 8.248 40.5708 8.064 40.4908 7.968C40.4108 7.856 40.2028 7.8 39.8668 7.8H38.5708V6ZM57.4476 6H60.7116C62.4556 6 63.3276 6.856 63.3276 8.568V18H60.5916C60.3356 18 60.1276 17.912 59.9676 17.736C59.8076 17.56 59.7276 17.328 59.7276 17.04V8.52C59.7276 8.264 59.6636 8.08 59.5356 7.968C59.4236 7.856 59.1596 7.8 58.7436 7.8H57.4476V6ZM46.7436 6H48.2076C48.9116 6 49.4396 6.176 49.7916 6.528C50.1596 6.864 50.3436 7.304 50.3436 7.848V18H47.6076C47.3516 18 47.1436 17.912 46.9836 17.736C46.8236 17.56 46.7436 17.328 46.7436 17.04V6ZM50.9436 6H54.2076C55.9516 6 56.8236 6.856 56.8236 8.568V18H54.0876C53.8316 18 53.6236 17.912 53.4636 17.736C53.3036 17.56 53.2236 17.328 53.2236 17.04V8.52C53.2236 8.264 53.1596 8.08 53.0316 7.968C52.9196 7.856 52.6556 7.8 52.2396 7.8H50.9436V6ZM71.8881 7.8H70.5921C70.0961 7.8 69.8161 7.888 69.7521 8.064C69.6561 8.272 69.6081 8.568 69.6081 8.952V15.048C69.6081 15.08 69.6081 15.176 69.6081 15.336C69.6081 15.496 69.6241 15.632 69.6561 15.744C69.7201 16.048 70.0321 16.2 70.5921 16.2H71.8881V18H69.5601C68.9521 18 68.4561 17.976 68.0721 17.928C67.6881 17.864 67.3521 17.736 67.0641 17.544C66.7761 17.352 66.5601 17.144 66.4161 16.92C66.2721 16.68 66.1521 16.304 66.0561 15.792C65.9441 15.072 65.8881 14.064 65.8881 12.768C65.8881 11.472 65.8961 10.6 65.9121 10.152C65.9281 9.688 65.9521 9.2 65.9841 8.688C66.0321 8.176 66.1041 7.8 66.2001 7.56C66.3121 7.32 66.4481 7.08 66.6081 6.84C66.7841 6.584 67.0081 6.408 67.2801 6.312C67.8721 6.104 68.6321 6 69.5601 6H71.8881V7.8ZM77.2881 17.832C77.2881 17.944 77.2561 18 77.1921 18H75.2241C74.3281 18 73.6641 17.792 73.2321 17.376C72.8161 16.96 72.6081 16.28 72.6081 15.336V6H73.5921C74.6001 6 75.2881 6.24 75.6561 6.72C76.0241 7.184 76.2081 7.8 76.2081 8.568V15.288C76.2081 15.784 76.3121 16.064 76.5201 16.128C76.6321 16.176 76.7841 16.2 76.9761 16.2H77.0961C77.2241 16.2 77.2881 16.256 77.2881 16.368V17.832ZM83.3331 18H80.8131C80.2691 18 79.9091 17.912 79.7331 17.736C79.5731 17.56 79.4931 17.192 79.4931 16.632V1.608C79.4931 1.32 79.5731 1.088 79.7331 0.912C79.8931 0.735999 80.1011 0.647999 80.3571 0.647999H83.3331V18ZM84.2931 0.647999H87.3411C88.8611 0.647999 89.8691 1.008 90.3651 1.728C90.8771 2.432 91.1331 3.856 91.1331 6C91.1331 7.424 90.9731 8.536 90.6531 9.336C90.3491 10.136 89.9411 10.672 89.4291 10.944C88.9171 11.2 88.2211 11.328 87.3411 11.328H84.2931V9.048H86.0691C86.4851 9.048 86.7491 8.992 86.8611 8.88C86.9891 8.768 87.0531 8.592 87.0531 8.352V3.648C87.0531 3.392 86.9891 3.208 86.8611 3.096C86.7491 2.984 86.4851 2.928 86.0691 2.928H84.2931V0.647999ZM98.4259 17.832C98.4259 17.944 98.3859 18 98.3059 18H95.8819C94.9859 18 94.3219 17.792 93.8899 17.376C93.4739 16.96 93.2659 16.28 93.2659 15.336V0.671999H94.7299C95.4339 0.671999 95.9619 0.847999 96.3139 1.2C96.6819 1.536 96.8659 1.976 96.8659 2.52V15.288C96.8659 15.784 96.9699 16.064 97.1779 16.128C97.2899 16.176 97.4419 16.2 97.6339 16.2H98.2339C98.3619 16.2 98.4259 16.256 98.4259 16.368V17.832ZM100.039 6H102.775C103.031 6 103.239 6.088 103.399 6.264C103.559 6.44 103.639 6.672 103.639 6.96V15.48C103.639 15.736 103.695 15.92 103.807 16.032C103.935 16.144 104.207 16.2 104.623 16.2H106.015V18H102.655C100.911 18 100.039 17.144 100.039 15.432V6ZM111.295 17.832C111.295 17.944 111.255 18 111.175 18H108.751C108.047 18 107.511 17.832 107.143 17.496C106.791 17.144 106.615 16.696 106.615 16.152V6H109.351C109.607 6 109.815 6.088 109.975 6.264C110.135 6.44 110.215 6.672 110.215 6.96V15.288C110.215 15.784 110.319 16.064 110.527 16.128C110.639 16.176 110.791 16.2 110.983 16.2H111.103C111.231 16.2 111.295 16.256 111.295 16.368V17.832ZM116.524 6V10.392C116.524 10.664 116.564 10.856 116.644 10.968C116.724 11.064 116.932 11.112 117.268 11.112H118.612V12.912H115.54C113.796 12.912 112.924 12.056 112.924 10.344V8.664C112.924 7.608 113.188 6.904 113.716 6.552C114.26 6.184 115.196 6 116.524 6ZM116.572 14.208V15.48C116.572 15.752 116.612 15.944 116.692 16.056C116.772 16.152 116.98 16.2 117.316 16.2H118.612V18H115.588C113.844 18 112.972 17.144 112.972 15.432V14.712C112.972 14.472 112.996 14.336 113.044 14.304C113.108 14.272 113.148 14.256 113.164 14.256C113.18 14.24 113.22 14.232 113.284 14.232C113.364 14.216 113.412 14.208 113.428 14.208C114.484 14.208 115.532 14.208 116.572 14.208ZM119.332 11.112H120.316C122.06 11.112 122.932 11.968 122.932 13.68V15.336C122.932 16.392 122.66 17.104 122.116 17.472C121.588 17.824 120.66 18 119.332 18V11.112ZM117.244 6H120.268C122.012 6 122.884 6.856 122.884 8.568V9.816C121.812 9.816 120.996 9.816 120.436 9.816C119.876 9.816 119.588 9.816 119.572 9.816C119.556 9.8 119.524 9.792 119.476 9.792C119.444 9.776 119.42 9.76 119.404 9.744C119.388 9.728 119.372 9.712 119.356 9.696C119.34 9.664 119.332 9.632 119.332 9.6C119.3 9.472 119.284 9.376 119.284 9.312V8.52C119.284 8.248 119.244 8.064 119.164 7.968C119.084 7.856 118.876 7.8 118.54 7.8H117.244V6Z" fill="url(#paint0_linear_2_2)" fill-opacity="0.78"/>
<defs>
<linearGradient id="paint0_linear_2_2" x1="-6.5" y1="-17" x2="87" y2="35" gradientUnits="userSpaceOnUse">
<stop stop-color="#2616DB"/>
<stop offset="1" stop-color="#5148B9"/>
</linearGradient>
</defs>
</svg>
